<svg xmlns="http://www.w3.org/2000/svg" width="76" height="76" viewBox="0 0 76 76">
  <g id="Grupo_18227" data-name="Grupo 18227" transform="translate(-721 -3461)">
    <g id="Grupo_11753" data-name="Grupo 11753" transform="translate(721 3461)">
      <rect id="Retângulo_3310" data-name="Retângulo 3310" width="76" height="76" rx="13" fill="#fff"/>
      <g id="seta_contrair" data-name="seta contrair" transform="translate(58.309 16.989) rotate(90)">
        <path id="iconfinder_icon-arrow-up-b_211623" d="M41.983,25.838l-.238-.325L23.738,1.329A3.166,3.166,0,0,0,21.2,0a3.209,3.209,0,0,0-2.542,1.329L.662,25.467l-.3.4A2.674,2.674,0,0,0,0,27.214a2.329,2.329,0,0,0,2.2,2.442H40.169a2.329,2.329,0,0,0,2.2-2.442A2.634,2.634,0,0,0,41.983,25.838Z" fill="#484e52"/>
      </g>
    </g>
  </g>
</svg>
